{
    "bars": [
    ],
    "onset-x": [
        { "onset": 0.0, "x": 160 },
        { "onset": 4.0, "x": 400 },
        { "onset": 8.0, "x": 623 },
        { "onset": 12.0, "x": 916 },
        { "onset": 16.0, "x": 1176 },
        { "onset": 20.0, "x": 1443 },
        { "onset": 24.0, "x": 1766 },
        { "onset": 28.0, "x": 2002 },
        { "onset": 32.0, "x": 2230 },
        { "onset": 36.0, "x": 2545 },
        { "onset": 40.0, "x": 2859 },
        { "onset": 44.0, "x": 3152 },
        { "onset": 48.0, "x": 3424 },
        { "onset": 52.0, "x": 3768 },
        { "onset": 56.0, "x": 4064 },
        { "onset": 60.0, "x": 4336 },
        { "onset": 64.0, "x": 4646 },
        { "onset": 68.0, "x": 4973 },
        { "onset": 72.0, "x": 5306 },
        { "onset": 76.0, "x": 5666 },
        { "onset": 80.0, "x": 5934 },
        { "onset": 84.0, "x": 6168 },
        { "onset": 88.0, "x": 6376 },
        { "onset": 92.0, "x": 6620 },
        { "onset": 96.0, "x": 6908 },
        { "onset": 100.0, "x": 7153 },
        { "onset": 104.0, "x": 7431 },
        { "onset": 108.0, "x": 7655 },
        { "onset": 112.0, "x": 7850 },
        { "onset": 116.0, "x": 8070 },
        { "onset": 120.0, "x": 8290 },
        { "onset": 124.0, "x": 8480 }
    ],
    "staffs": [
        { "notespos": [],  "top": 110, "bottom": 170 },
        { "notespos": [],  "top": 180, "bottom": 240 },
        { "notespos": [],  "top": 250, "bottom": 310 }
    ]
}
