[
    {
        "date": 0.572165,
        "onset": 0
    },
    {
        "date": 1.087673,
        "onset": 1
    },
    {
        "date": 1.415571,
        "onset": 2
    },
    {
        "date": 1.711783,
        "onset": 3
    },
    {
        "date": 2.047652,
        "onset": 4
    },
    {
        "date": 2.511632,
        "onset": 5
    },
    {
        "date": 3.006817,
        "onset": 6
    },
    {
        "date": 3.327743,
        "onset": 7
    },
    {
        "date": 3.679477,
        "onset": 8
    },
    {
        "date": 4.007347,
        "onset": 9
    },
    {
        "date": 4.407461,
        "onset": 10
    },
    {
        "date": 4.783335,
        "onset": 11
    },
    {
        "date": 5.175504,
        "onset": 12
    },
    {
        "date": 5.511375,
        "onset": 13
    },
    {
        "date": 5.86351,
        "onset": 14
    },
    {
        "date": 6.215509,
        "onset": 15
    },
    {
        "date": 6.607219,
        "onset": 16
    },
    {
        "date": 6.927367,
        "onset": 17
    },
    {
        "date": 7.231642,
        "onset": 18
    },
    {
        "date": 7.550846,
        "onset": 19
    },
    {
        "date": 7.903392,
        "onset": 20
    },
    {
        "date": 8.231281,
        "onset": 21
    },
    {
        "date": 8.615239,
        "onset": 22
    },
    {
        "date": 8.943405,
        "onset": 23
    },
    {
        "date": 9.318935,
        "onset": 24
    },
    {
        "date": 9.671332,
        "onset": 25
    },
    {
        "date": 10.03084,
        "onset": 26
    },
    {
        "date": 10.391177,
        "onset": 27
    },
    {
        "date": 10.727166,
        "onset": 28
    },
    {
        "date": 11.06285,
        "onset": 29
    },
    {
        "date": 11.439324,
        "onset": 30
    },
    {
        "date": 11.759168,
        "onset": 31
    },
    {
        "date": 12.103156,
        "onset": 32
    },
    {
        "date": 12.455193,
        "onset": 33
    },
    {
        "date": 12.807282,
        "onset": 34
    },
    {
        "date": 13.135182,
        "onset": 35
    },
    {
        "date": 13.487054,
        "onset": 36
    },
    {
        "date": 13.839277,
        "onset": 37
    },
    {
        "date": 14.183234,
        "onset": 38
    },
    {
        "date": 14.503176,
        "onset": 39
    },
    {
        "date": 14.846975,
        "onset": 40
    },
    {
        "date": 15.166985,
        "onset": 41
    },
    {
        "date": 15.503321,
        "onset": 42
    },
    {
        "date": 15.846762,
        "onset": 43
    },
    {
        "date": 16.199018,
        "onset": 44
    },
    {
        "date": 16.54292,
        "onset": 45
    },
    {
        "date": 16.878963,
        "onset": 46
    },
    {
        "date": 17.223082,
        "onset": 47
    },
    {
        "date": 17.607226,
        "onset": 48
    },
    {
        "date": 17.959109,
        "onset": 49
    },
    {
        "date": 18.310963,
        "onset": 50
    },
    {
        "date": 18.647176,
        "onset": 51
    },
    {
        "date": 19.015065,
        "onset": 52
    },
    {
        "date": 19.366874,
        "onset": 53
    },
    {
        "date": 19.727036,
        "onset": 54
    },
    {
        "date": 20.062583,
        "onset": 55
    },
    {
        "date": 20.415039,
        "onset": 56
    },
    {
        "date": 20.774973,
        "onset": 57
    },
    {
        "date": 21.118805,
        "onset": 58
    },
    {
        "date": 21.462657,
        "onset": 59
    },
    {
        "date": 21.806893,
        "onset": 60
    },
    {
        "date": 22.142932,
        "onset": 61
    },
    {
        "date": 22.510738,
        "onset": 62
    },
    {
        "date": 22.870933,
        "onset": 63
    },
    {
        "date": 23.214987,
        "onset": 64
    },
    {
        "date": 23.542808,
        "onset": 65
    },
    {
        "date": 23.854657,
        "onset": 66
    },
    {
        "date": 24.214878,
        "onset": 67
    },
    {
        "date": 24.566669,
        "onset": 68
    },
    {
        "date": 24.918755,
        "onset": 69
    },
    {
        "date": 25.262075,
        "onset": 70
    },
    {
        "date": 25.590682,
        "onset": 71
    },
    {
        "date": 25.95083,
        "onset": 72
    },
    {
        "date": 26.29472,
        "onset": 73
    },
    {
        "date": 26.638786,
        "onset": 74
    },
    {
        "date": 26.9904,
        "onset": 75
    },
    {
        "date": 27.366558,
        "onset": 76
    },
    {
        "date": 27.710576,
        "onset": 77
    },
    {
        "date": 28.070615,
        "onset": 78
    },
    {
        "date": 28.414703,
        "onset": 79
    },
    {
        "date": 28.782736,
        "onset": 80
    },
    {
        "date": 29.102606,
        "onset": 81
    },
    {
        "date": 29.43041,
        "onset": 82
    },
    {
        "date": 29.790476,
        "onset": 83
    },
    {
        "date": 30.174587,
        "onset": 84
    },
    {
        "date": 30.510614,
        "onset": 85
    },
    {
        "date": 30.878441,
        "onset": 86
    },
    {
        "date": 31.262422,
        "onset": 87
    },
    {
        "date": 31.622586,
        "onset": 88
    },
    {
        "date": 31.966462,
        "onset": 89
    },
    {
        "date": 32.31849,
        "onset": 90
    },
    {
        "date": 32.638403,
        "onset": 91
    },
    {
        "date": 32.990214,
        "onset": 92
    },
    {
        "date": 33.349613,
        "onset": 93
    },
    {
        "date": 33.702394,
        "onset": 94
    },
    {
        "date": 33.998443,
        "onset": 95
    },
    {
        "date": 34.342424,
        "onset": 96
    },
    {
        "date": 34.686322,
        "onset": 97
    },
    {
        "date": 35.022282,
        "onset": 98
    },
    {
        "date": 35.342436,
        "onset": 99
    },
    {
        "date": 35.717389,
        "onset": 100
    },
    {
        "date": 36.054149,
        "onset": 101
    },
    {
        "date": 36.37441,
        "onset": 102
    },
    {
        "date": 36.702382,
        "onset": 103
    },
    {
        "date": 37.022376,
        "onset": 104
    },
    {
        "date": 37.37451,
        "onset": 105
    },
    {
        "date": 37.742213,
        "onset": 106
    },
    {
        "date": 38.054319,
        "onset": 107
    },
    {
        "date": 38.39852,
        "onset": 108
    },
    {
        "date": 38.758241,
        "onset": 109
    },
    {
        "date": 39.118124,
        "onset": 110
    },
    {
        "date": 39.438282,
        "onset": 111
    },
    {
        "date": 39.805798,
        "onset": 112
    },
    {
        "date": 40.150109,
        "onset": 113
    },
    {
        "date": 40.51049,
        "onset": 114
    },
    {
        "date": 40.830294,
        "onset": 115
    },
    {
        "date": 41.182141,
        "onset": 116
    },
    {
        "date": 41.518421,
        "onset": 117
    },
    {
        "date": 41.870174,
        "onset": 118
    },
    {
        "date": 42.198058,
        "onset": 119
    },
    {
        "date": 42.542091,
        "onset": 120
    },
    {
        "date": 42.877547,
        "onset": 121
    },
    {
        "date": 43.221637,
        "onset": 122
    },
    {
        "date": 43.566465,
        "onset": 123
    },
    {
        "date": 43.910099,
        "onset": 124
    },
    {
        "date": 44.254086,
        "onset": 125
    },
    {
        "date": 44.598167,
        "onset": 126
    },
    {
        "date": 44.925982,
        "onset": 127
    },
    {
        "date": 45.30191,
        "onset": 128
    },
    {
        "date": 45.630139,
        "onset": 129
    },
    {
        "date": 45.966093,
        "onset": 130
    },
    {
        "date": 46.301732,
        "onset": 131
    },
    {
        "date": 46.637638,
        "onset": 132
    },
    {
        "date": 46.98195,
        "onset": 133
    },
    {
        "date": 47.325935,
        "onset": 134
    },
    {
        "date": 47.670163,
        "onset": 135
    },
    {
        "date": 48.021824,
        "onset": 136
    },
    {
        "date": 48.373444,
        "onset": 137
    },
    {
        "date": 48.733876,
        "onset": 138
    },
    {
        "date": 49.078082,
        "onset": 139
    },
    {
        "date": 49.429669,
        "onset": 140
    },
    {
        "date": 49.750131,
        "onset": 141
    },
    {
        "date": 50.077984,
        "onset": 142
    },
    {
        "date": 50.389698,
        "onset": 143
    },
    {
        "date": 50.709667,
        "onset": 144
    },
    {
        "date": 50.997691,
        "onset": 145
    },
    {
        "date": 51.32596,
        "onset": 146
    },
    {
        "date": 51.637483,
        "onset": 147
    },
    {
        "date": 51.965858,
        "onset": 148
    },
    {
        "date": 52.270016,
        "onset": 149
    },
    {
        "date": 52.565523,
        "onset": 150
    },
    {
        "date": 52.86963,
        "onset": 151
    },
    {
        "date": 53.181845,
        "onset": 152
    },
    {
        "date": 53.485348,
        "onset": 153
    },
    {
        "date": 53.781715,
        "onset": 154
    },
    {
        "date": 54.101624,
        "onset": 155
    },
    {
        "date": 54.437473,
        "onset": 156
    },
    {
        "date": 54.725733,
        "onset": 157
    },
    {
        "date": 55.061514,
        "onset": 158
    },
    {
        "date": 55.357559,
        "onset": 159
    },
    {
        "date": 55.669553,
        "onset": 160
    },
    {
        "date": 55.973738,
        "onset": 161
    },
    {
        "date": 56.301726,
        "onset": 162
    },
    {
        "date": 56.581192,
        "onset": 163
    },
    {
        "date": 56.901455,
        "onset": 164
    },
    {
        "date": 57.189618,
        "onset": 165
    },
    {
        "date": 57.493467,
        "onset": 166
    },
    {
        "date": 57.78926,
        "onset": 167
    },
    {
        "date": 58.109907,
        "onset": 168
    },
    {
        "date": 58.413337,
        "onset": 169
    },
    {
        "date": 58.741626,
        "onset": 170
    },
    {
        "date": 59.037302,
        "onset": 171
    },
    {
        "date": 59.365536,
        "onset": 172
    },
    {
        "date": 59.677543,
        "onset": 173
    },
    {
        "date": 60.045711,
        "onset": 174
    },
    {
        "date": 60.341195,
        "onset": 175
    },
    {
        "date": 60.685512,
        "onset": 176
    },
    {
        "date": 61.005205,
        "onset": 177
    },
    {
        "date": 61.309455,
        "onset": 178
    },
    {
        "date": 61.605354,
        "onset": 179
    },
    {
        "date": 61.94114,
        "onset": 180
    },
    {
        "date": 62.237312,
        "onset": 181
    },
    {
        "date": 62.565413,
        "onset": 182
    },
    {
        "date": 62.87725,
        "onset": 183
    },
    {
        "date": 63.221384,
        "onset": 184
    },
    {
        "date": 63.508996,
        "onset": 185
    },
    {
        "date": 63.852591,
        "onset": 186
    },
    {
        "date": 64.14891,
        "onset": 187
    },
    {
        "date": 64.437202,
        "onset": 188
    },
    {
        "date": 64.733248,
        "onset": 189
    },
    {
        "date": 65.05279,
        "onset": 190
    },
    {
        "date": 65.357046,
        "onset": 191
    },
    {
        "date": 65.677201,
        "onset": 192
    },
    {
        "date": 65.972941,
        "onset": 193
    },
    {
        "date": 66.293303,
        "onset": 194
    },
    {
        "date": 66.588957,
        "onset": 195
    },
    {
        "date": 66.917146,
        "onset": 196
    },
    {
        "date": 67.236907,
        "onset": 197
    },
    {
        "date": 67.533015,
        "onset": 198
    },
    {
        "date": 67.837258,
        "onset": 199
    },
    {
        "date": 68.148795,
        "onset": 200
    },
    {
        "date": 68.452964,
        "onset": 201
    },
    {
        "date": 68.797174,
        "onset": 202
    },
    {
        "date": 69.101246,
        "onset": 203
    },
    {
        "date": 69.444843,
        "onset": 204
    },
    {
        "date": 69.757353,
        "onset": 205
    },
    {
        "date": 70.09298,
        "onset": 206
    },
    {
        "date": 70.396824,
        "onset": 207
    },
    {
        "date": 70.724904,
        "onset": 208
    },
    {
        "date": 71.036959,
        "onset": 209
    },
    {
        "date": 71.372793,
        "onset": 210
    },
    {
        "date": 71.685086,
        "onset": 211
    },
    {
        "date": 72.005146,
        "onset": 212
    },
    {
        "date": 72.293074,
        "onset": 213
    },
    {
        "date": 72.613173,
        "onset": 214
    },
    {
        "date": 72.925066,
        "onset": 215
    },
    {
        "date": 73.244883,
        "onset": 216
    },
    {
        "date": 73.565112,
        "onset": 217
    },
    {
        "date": 73.868716,
        "onset": 218
    },
    {
        "date": 74.180484,
        "onset": 219
    },
    {
        "date": 74.493419,
        "onset": 220
    },
    {
        "date": 74.772876,
        "onset": 221
    },
    {
        "date": 75.108394,
        "onset": 222
    },
    {
        "date": 75.381,
        "onset": 223
    },
    {
        "date": 75.692843,
        "onset": 224
    },
    {
        "date": 75.980847,
        "onset": 225
    },
    {
        "date": 76.277145,
        "onset": 226
    },
    {
        "date": 76.588968,
        "onset": 227
    },
    {
        "date": 76.861013,
        "onset": 228
    },
    {
        "date": 77.188694,
        "onset": 229
    },
    {
        "date": 77.492935,
        "onset": 230
    },
    {
        "date": 77.804746,
        "onset": 231
    },
    {
        "date": 78.100964,
        "onset": 232
    },
    {
        "date": 78.404999,
        "onset": 233
    },
    {
        "date": 78.732434,
        "onset": 234
    },
    {
        "date": 79.020719,
        "onset": 235
    },
    {
        "date": 79.372646,
        "onset": 236
    },
    {
        "date": 79.668655,
        "onset": 237
    },
    {
        "date": 79.988839,
        "onset": 238
    },
    {
        "date": 80.284452,
        "onset": 239
    },
    {
        "date": 80.620788,
        "onset": 240
    },
    {
        "date": 80.89272,
        "onset": 241
    },
    {
        "date": 81.236569,
        "onset": 242
    },
    {
        "date": 81.516684,
        "onset": 243
    },
    {
        "date": 81.828546,
        "onset": 244
    },
    {
        "date": 82.124202,
        "onset": 245
    },
    {
        "date": 82.436504,
        "onset": 246
    },
    {
        "date": 82.740767,
        "onset": 247
    },
    {
        "date": 83.060335,
        "onset": 248
    },
    {
        "date": 83.340735,
        "onset": 249
    },
    {
        "date": 83.700854,
        "onset": 250
    },
    {
        "date": 83.996626,
        "onset": 251
    },
    {
        "date": 84.316395,
        "onset": 252
    },
    {
        "date": 84.628167,
        "onset": 253
    },
    {
        "date": 84.92464,
        "onset": 254
    },
    {
        "date": 85.204467,
        "onset": 255
    },
    {
        "date": 85.524376,
        "onset": 256
    },
    {
        "date": 85.852418,
        "onset": 257
    },
    {
        "date": 86.196306,
        "onset": 258
    },
    {
        "date": 86.492595,
        "onset": 259
    },
    {
        "date": 86.836278,
        "onset": 260
    },
    {
        "date": 87.164281,
        "onset": 261
    },
    {
        "date": 87.492574,
        "onset": 262
    },
    {
        "date": 87.772344,
        "onset": 263
    },
    {
        "date": 88.11634,
        "onset": 264
    },
    {
        "date": 88.428557,
        "onset": 265
    },
    {
        "date": 88.716507,
        "onset": 266
    },
    {
        "date": 89.028516,
        "onset": 267
    },
    {
        "date": 89.356299,
        "onset": 268
    },
    {
        "date": 89.6603,
        "onset": 269
    },
    {
        "date": 89.996269,
        "onset": 270
    },
    {
        "date": 90.276379,
        "onset": 271
    },
    {
        "date": 90.596404,
        "onset": 272
    },
    {
        "date": 90.891874,
        "onset": 273
    },
    {
        "date": 91.196411,
        "onset": 274
    },
    {
        "date": 91.500499,
        "onset": 275
    },
    {
        "date": 91.82802,
        "onset": 276
    },
    {
        "date": 92.132004,
        "onset": 277
    },
    {
        "date": 92.436272,
        "onset": 278
    },
    {
        "date": 92.708346,
        "onset": 279
    },
    {
        "date": 93.036049,
        "onset": 280
    },
    {
        "date": 93.324051,
        "onset": 281
    },
    {
        "date": 93.636092,
        "onset": 282
    },
    {
        "date": 93.939563,
        "onset": 283
    },
    {
        "date": 94.235448,
        "onset": 284
    },
    {
        "date": 94.540341,
        "onset": 285
    },
    {
        "date": 94.844353,
        "onset": 286
    },
    {
        "date": 95.148122,
        "onset": 287
    },
    {
        "date": 95.484373,
        "onset": 288
    },
    {
        "date": 95.780233,
        "onset": 289
    },
    {
        "date": 96.116034,
        "onset": 290
    },
    {
        "date": 96.42818,
        "onset": 291
    },
    {
        "date": 96.708016,
        "onset": 292
    },
    {
        "date": 96.996195,
        "onset": 293
    },
    {
        "date": 97.331655,
        "onset": 294
    },
    {
        "date": 97.644114,
        "onset": 295
    },
    {
        "date": 97.93225,
        "onset": 296
    },
    {
        "date": 98.228221,
        "onset": 297
    },
    {
        "date": 98.532065,
        "onset": 298
    },
    {
        "date": 98.812116,
        "onset": 299
    },
    {
        "date": 99.131559,
        "onset": 300
    },
    {
        "date": 99.419927,
        "onset": 301
    },
    {
        "date": 99.732047,
        "onset": 302
    },
    {
        "date": 100.035596,
        "onset": 303
    },
    {
        "date": 100.348079,
        "onset": 304
    },
    {
        "date": 100.651793,
        "onset": 305
    },
    {
        "date": 100.947829,
        "onset": 306
    },
    {
        "date": 101.268204,
        "onset": 307
    },
    {
        "date": 101.596197,
        "onset": 308
    },
    {
        "date": 101.907531,
        "onset": 309
    },
    {
        "date": 102.211836,
        "onset": 310
    },
    {
        "date": 102.500105,
        "onset": 311
    },
    {
        "date": 102.819538,
        "onset": 312
    },
    {
        "date": 103.107981,
        "onset": 313
    },
    {
        "date": 103.419982,
        "onset": 314
    },
    {
        "date": 103.707771,
        "onset": 315
    },
    {
        "date": 104.035712,
        "onset": 316
    },
    {
        "date": 104.331099,
        "onset": 317
    },
    {
        "date": 104.651864,
        "onset": 318
    },
    {
        "date": 104.955654,
        "onset": 319
    },
    {
        "date": 105.267847,
        "onset": 320
    },
    {
        "date": 105.58776,
        "onset": 321
    },
    {
        "date": 105.915504,
        "onset": 322
    },
    {
        "date": 106.211676,
        "onset": 323
    },
    {
        "date": 106.563842,
        "onset": 324
    },
    {
        "date": 106.875574,
        "onset": 325
    },
    {
        "date": 107.211321,
        "onset": 326
    },
    {
        "date": 107.508033,
        "onset": 327
    },
    {
        "date": 107.819606,
        "onset": 328
    },
    {
        "date": 108.139306,
        "onset": 329
    },
    {
        "date": 108.451908,
        "onset": 330
    },
    {
        "date": 108.731373,
        "onset": 331
    },
    {
        "date": 109.051672,
        "onset": 332
    },
    {
        "date": 109.32345,
        "onset": 333
    },
    {
        "date": 109.635461,
        "onset": 334
    },
    {
        "date": 109.93923,
        "onset": 335
    },
    {
        "date": 110.259686,
        "onset": 336
    },
    {
        "date": 110.555428,
        "onset": 337
    },
    {
        "date": 110.851518,
        "onset": 338
    },
    {
        "date": 111.146493,
        "onset": 339
    },
    {
        "date": 111.47569,
        "onset": 340
    },
    {
        "date": 111.77145,
        "onset": 341
    },
    {
        "date": 112.067547,
        "onset": 342
    },
    {
        "date": 112.387646,
        "onset": 343
    },
    {
        "date": 112.715478,
        "onset": 344
    },
    {
        "date": 113.019328,
        "onset": 345
    },
    {
        "date": 113.363266,
        "onset": 346
    },
    {
        "date": 113.667572,
        "onset": 347
    },
    {
        "date": 113.963746,
        "onset": 348
    },
    {
        "date": 114.267729,
        "onset": 349
    },
    {
        "date": 114.579611,
        "onset": 350
    },
    {
        "date": 114.883476,
        "onset": 351
    },
    {
        "date": 115.179455,
        "onset": 352
    },
    {
        "date": 115.475567,
        "onset": 353
    },
    {
        "date": 115.787618,
        "onset": 354
    },
    {
        "date": 116.091384,
        "onset": 355
    },
    {
        "date": 116.387318,
        "onset": 356
    },
    {
        "date": 116.691385,
        "onset": 357
    },
    {
        "date": 117.035418,
        "onset": 358
    },
    {
        "date": 117.323285,
        "onset": 359
    },
    {
        "date": 117.667194,
        "onset": 360
    },
    {
        "date": 117.979346,
        "onset": 361
    },
    {
        "date": 118.267422,
        "onset": 362
    },
    {
        "date": 118.587206,
        "onset": 363
    },
    {
        "date": 118.875485,
        "onset": 364
    },
    {
        "date": 119.18749,
        "onset": 365
    },
    {
        "date": 119.467359,
        "onset": 366
    },
    {
        "date": 119.739357,
        "onset": 367
    },
    {
        "date": 120.059425,
        "onset": 368
    },
    {
        "date": 120.347392,
        "onset": 369
    },
    {
        "date": 120.683241,
        "onset": 370
    },
    {
        "date": 120.979138,
        "onset": 371
    },
    {
        "date": 121.275214,
        "onset": 372
    },
    {
        "date": 121.595023,
        "onset": 373
    },
    {
        "date": 121.898519,
        "onset": 374
    },
    {
        "date": 122.19518,
        "onset": 375
    },
    {
        "date": 122.539123,
        "onset": 376
    },
    {
        "date": 122.891059,
        "onset": 377
    },
    {
        "date": 123.203274,
        "onset": 378
    },
    {
        "date": 123.49872,
        "onset": 379
    },
    {
        "date": 123.827084,
        "onset": 380
    },
    {
        "date": 124.146999,
        "onset": 381
    },
    {
        "date": 124.474338,
        "onset": 382
    },
    {
        "date": 124.762386,
        "onset": 383
    },
    {
        "date": 125.091239,
        "onset": 384
    },
    {
        "date": 125.443152,
        "onset": 385
    },
    {
        "date": 125.755173,
        "onset": 386
    },
    {
        "date": 126.066949,
        "onset": 387
    },
    {
        "date": 126.370947,
        "onset": 388
    },
    {
        "date": 126.651058,
        "onset": 389
    },
    {
        "date": 126.955028,
        "onset": 390
    },
    {
        "date": 127.258832,
        "onset": 391
    },
    {
        "date": 127.587052,
        "onset": 392
    },
    {
        "date": 127.931105,
        "onset": 393
    },
    {
        "date": 128.267217,
        "onset": 394
    },
    {
        "date": 128.555176,
        "onset": 395
    },
    {
        "date": 128.874856,
        "onset": 396
    },
    {
        "date": 129.291088,
        "onset": 397
    },
    {
        "date": 129.586953,
        "onset": 398
    },
    {
        "date": 129.906761,
        "onset": 399
    },
    {
        "date": 130.226945,
        "onset": 400
    },
    {
        "date": 130.530857,
        "onset": 401
    },
    {
        "date": 130.843121,
        "onset": 402
    },
    {
        "date": 131.178905,
        "onset": 403
    },
    {
        "date": 131.48276,
        "onset": 404
    },
    {
        "date": 131.770928,
        "onset": 405
    },
    {
        "date": 132.082479,
        "onset": 406
    },
    {
        "date": 132.410847,
        "onset": 407
    },
    {
        "date": 132.762751,
        "onset": 408
    },
    {
        "date": 133.098989,
        "onset": 409
    },
    {
        "date": 133.378461,
        "onset": 410
    },
    {
        "date": 133.682879,
        "onset": 411
    },
    {
        "date": 134.002769,
        "onset": 412
    },
    {
        "date": 134.330511,
        "onset": 413
    },
    {
        "date": 134.658545,
        "onset": 414
    },
    {
        "date": 134.946755,
        "onset": 415
    },
    {
        "date": 135.274622,
        "onset": 416
    },
    {
        "date": 135.594579,
        "onset": 417
    },
    {
        "date": 135.907029,
        "onset": 418
    },
    {
        "date": 136.226702,
        "onset": 419
    },
    {
        "date": 136.5627,
        "onset": 420
    },
    {
        "date": 136.898727,
        "onset": 421
    },
    {
        "date": 137.210351,
        "onset": 422
    },
    {
        "date": 137.506651,
        "onset": 423
    },
    {
        "date": 137.818545,
        "onset": 424
    },
    {
        "date": 138.186416,
        "onset": 425
    },
    {
        "date": 138.530651,
        "onset": 426
    },
    {
        "date": 138.84257,
        "onset": 427
    },
    {
        "date": 139.170485,
        "onset": 428
    },
    {
        "date": 139.506582,
        "onset": 429
    },
    {
        "date": 139.826614,
        "onset": 430
    },
    {
        "date": 140.138426,
        "onset": 431
    },
    {
        "date": 140.47461,
        "onset": 432
    },
    {
        "date": 140.842443,
        "onset": 433
    },
    {
        "date": 141.226434,
        "onset": 434
    },
    {
        "date": 141.53802,
        "onset": 435
    },
    {
        "date": 141.858712,
        "onset": 436
    },
    {
        "date": 142.210516,
        "onset": 437
    },
    {
        "date": 142.538267,
        "onset": 438
    },
    {
        "date": 142.954581,
        "onset": 439
    },
    {
        "date": 143.290649,
        "onset": 440
    },
    {
        "date": 143.625913,
        "onset": 441
    },
    {
        "date": 144.002512,
        "onset": 442
    },
    {
        "date": 144.490115,
        "onset": 443
    },
    {
        "date": 144.914511,
        "onset": 444
    },
    {
        "date": 145.289474,
        "onset": 445
    },
    {
        "date": 145.609961,
        "onset": 446
    },
    {
        "date": 145.970211,
        "onset": 447
    },
    {
        "date": 146.354476,
        "onset": 448
    },
    {
        "date": 146.6502,
        "onset": 449
    },
    {
        "date": 146.986317,
        "onset": 450
    },
    {
        "date": 147.306521,
        "onset": 451
    },
    {
        "date": 147.690459,
        "onset": 452
    },
    {
        "date": 148.130365,
        "onset": 453
    },
    {
        "date": 148.50597,
        "onset": 454
    },
    {
        "date": 148.962276,
        "onset": 455
    },
    {
        "date": 149.610227,
        "onset": 456
    }
]