{
    "bars": [
        280.0,
        330.1134515833919,
        392.3817081971492,
        455.22816974676107,
        518.0231361525016,
        581.3366898235898,
        646.7686006556546,
        710.0012210803843,
        772.5553454552488,
        836.349075976376,
        899.1435960894445,
        995.019488674787,
        1090.7636880659588,
        1187.1508417950304,
        1285.0921203338432,
        1375.0273503838582,
        1460.9073460350837,
        1526.8827920559588,
        1581.552330651309,
        1647.66615677293,
        1712.3909686885618,
        1785.3864133504417,
        1850.4488612739042,
        1915.9268964445969,
        1979.0867568490337,
        2051.6481541636604,
        2125.7180943680596,
        2212.4793224611185,
        2285.7134454769944,
        2379.7854393887137,
        2460.6247000975645,
        2547.1847975100386,
        2613.7873446398553,
        2700.645813872291,
        2782.1139868446808,
        2847.8370381601826,
        2914.2542333113015,
        2986.6737864750303,
        3052.345705207367,
        3124.765258371096,
        3199.8869429764463,
        3268.2337564141485,
        3339.744954228889,
        3446.504534137565,
        3553.26411404624,
        3660.241132528524,
        3758.830458034064,
        3834.027337790533,
        3905.5966083928392,
        4012.356188301515,
        4119.115768210189,
        4226.092786692467,
        4324.682112198014,
        4399.878991954483,
        4471.448262556788,
        4529.884513480898,
        4596.539231463075,
        4663.1939494452445,
        4743.816527831849,
        4801.745117307823,
        4868.399835289993,
        4935.054553272162,
        5008.026142313257,
        5067.740332354575,
        5139.731502717695,
        5190.381604213733,
        5257.477388079796,
        5308.424579432321,
        5375.067014309468,
        5455.0203933049015,
        5505.130746757892,
        5638.029611293661,
        5717.272594550891,
        5796.853213815944,
        5876.433833081005,
        5963.3252181647185,
        6050.216603248432,
        6129.797222513486,
        6209.377841778547,
        6296.269226862261,
        6383.160611945975,
        6462.741231211029,
        6542.120719795503,
        6629.012104879216,
        6715.90348996293,
        6795.484109227984,
        6872.199629993372,
        6963.244009568646,
        7053.667983620974,
        7128.870475032146,
        7204.3575319104575,
        7280.5359986061185,
        7356.838786893425,
        7432.041278304605,
        7507.605797674756,
        7582.971993514433,
        7658.720518846028,
        7734.194387730571,
        7811.823195732345,
        7885.979264007992,
        7970.918837828387,
        8045.074906104109,
        8122.703714105861,
        8202.800761290031,
        8287.740335110428,
        8350.996129413546,
        8414.251923716667,
        8477.507718019788,
        8524.250115286606,
        8587.135234805404,
        8649.403491419103,
        8712.249952968721,
        8775.044919374506,
        8838.35847304559,
        8903.790383877627,
        8967.023004302358,
        9029.851568682268,
        9093.645299203425,
        9156.439819316514,
        9252.315711901827,
        9348.059911293,
        9444.447065022072,
        9542.388343560884,
        9632.323573610884,
        9718.203569262101,
        9784.17901528303,
        9838.84855387831,
        9905.102303896501,
        9970.026335135159,
        10036.021393136909,
        10100.400015953426,
        10166.395073955176,
        10228.961708658371,
        10294.567566018646,
        10357.361905005404,
        10445.15423812131,
        10511.403671150229,
        10598.164899243304,
        10664.031926586225,
        10751.06950214612,
        10817.32550654924,
        10905.117839665145,
        10970.968258506166,
        11036.07704585122,
        11102.316364724886,
        11177.82234319848,
        11244.699915605555,
        11309.988089773822,
        11377.077684903197,
        11450.312632717962,
        11516.394136957992,
        11612.353966268722,
        11718.585982576637,
        11814.527993448555,
        11910.326552483106,
        11977.57665859315,
        12042.849345862101,
        12138.809175172832,
        12245.041191480746,
        12340.983202352663,
        12436.781761387216,
        12504.031867497262,
        12569.30455476621,
        12626.286815692467,
        12691.564570095665,
        12756.842324498784,
        12820.80075894102,
        12876.958865051065,
        12942.236619454185,
        13007.514373857308,
        13070.846614018266,
        13129.122354940182,
        13196.51394669924,
        13247.354831137216,
        13314.583343966135,
        13365.289087069026,
        13432.36428566294,
        13498.364119974734,
        13549.438678852817,
        13614.677993921312
    ],
    "notes": [
        {
            "onset": 0.0,
            "x": 280.43280216685235
        },
        {
            "onset": 0.5,
            "x": 297.94729227339724
        },
        {
            "onset": 1.0,
            "x": 317.00522225817656
        },
        {
            "onset": 1.5,
            "x": 343.1167910050053
        },
        {
            "onset": 2.0,
            "x": 362.03719689034324
        },
        {
            "onset": 2.5,
            "x": 379.19253935609663
        },
        {
            "onset": 3.0,
            "x": 405.46598086512023
        },
        {
            "onset": 3.5,
            "x": 422.9804709716652
        },
        {
            "onset": 4.0,
            "x": 442.03840095644443
        },
        {
            "onset": 4.5,
            "x": 468.4326398489574
        },
        {
            "onset": 5.0,
            "x": 485.9471299555023
        },
        {
            "onset": 5.5,
            "x": 504.61919997072295
        },
        {
            "onset": 6.0,
            "x": 530.8899702468698
        },
        {
            "onset": 6.5,
            "x": 548.4044603534147
        },
        {
            "onset": 7.0,
            "x": 567.4623903381939
        },
        {
            "onset": 7.5,
            "x": 594.872147531787
        },
        {
            "onset": 8.0,
            "x": 612.5241617377741
        },
        {
            "onset": 8.5,
            "x": 632.8504834019034
        },
        {
            "onset": 9.0,
            "x": 659.554501503665
        },
        {
            "onset": 9.5,
            "x": 677.0689916102101
        },
        {
            "onset": 10.0,
            "x": 696.1269215949894
        },
        {
            "onset": 10.5,
            "x": 723.2056911825807
        },
        {
            "onset": 11.0,
            "x": 740.7201812891257
        },
        {
            "onset": 11.5,
            "x": 758.4409575448334
        },
        {
            "onset": 12.0,
            "x": 785.63961812322
        },
        {
            "onset": 12.5,
            "x": 803.1541082297648
        },
        {
            "onset": 13.0,
            "x": 822.2120382145442
        },
        {
            "onset": 13.5,
            "x": 849.5535460785723
        },
        {
            "onset": 14.0,
            "x": 867.0680361851173
        },
        {
            "onset": 14.5,
            "x": 886.1259661698965
        },
        {
            "onset": 15.0,
            "x": 913.434465843739
        },
        {
            "onset": 15.25,
            "x": 927.9261857828562
        },
        {
            "onset": 15.5,
            "x": 942.8144506230389
        },
        {
            "onset": 15.75,
            "x": 956.5451355545446
        },
        {
            "onset": 16.0,
            "x": 970.2651355545435
        },
        {
            "onset": 16.25,
            "x": 985.5285754327778
        },
        {
            "onset": 16.5,
            "x": 1007.8959787813318
        },
        {
            "onset": 16.75,
            "x": 1023.2862679746348
        },
        {
            "onset": 17.0,
            "x": 1037.777987913752
        },
        {
            "onset": 17.25,
            "x": 1052.269707852869
        },
        {
            "onset": 17.5,
            "x": 1066.7614277919865
        },
        {
            "onset": 17.75,
            "x": 1081.2531477311034
        },
        {
            "onset": 18.0,
            "x": 1103.2987413384094
        },
        {
            "onset": 18.25,
            "x": 1117.7904612775264
        },
        {
            "onset": 18.5,
            "x": 1132.282181216644
        },
        {
            "onset": 18.75,
            "x": 1146.0128661481508
        },
        {
            "onset": 19.0,
            "x": 1159.7328661481508
        },
        {
            "onset": 19.25,
            "x": 1174.9963060263851
        },
        {
            "onset": 19.5,
            "x": 1198.7873258132954
        },
        {
            "onset": 19.75,
            "x": 1214.1776150065982
        },
        {
            "onset": 20.0,
            "x": 1228.6693349457155
        },
        {
            "onset": 20.25,
            "x": 1243.1610548848328
        },
        {
            "onset": 20.5,
            "x": 1258.0493197250153
        },
        {
            "onset": 20.75,
            "x": 1272.9375845651982
        },
        {
            "onset": 21.0,
            "x": 1299.0683103751599
        },
        {
            "onset": 21.5,
            "x": 1320.0288278789649
        },
        {
            "onset": 21.75,
            "x": 1334.5205478180824
        },
        {
            "onset": 22.0,
            "x": 1349.0122677571992
        },
        {
            "onset": 22.25,
            "x": 1363.503987696317
        },
        {
            "onset": 22.5,
            "x": 1388.8833429909437
        },
        {
            "onset": 23.0,
            "x": 1407.941272975723
        },
        {
            "onset": 23.25,
            "x": 1422.4329929148403
        },
        {
            "onset": 23.5,
            "x": 1436.9247128539573
        },
        {
            "onset": 23.75,
            "x": 1451.4164327930746
        },
        {
            "onset": 24.0,
            "x": 1475.2145236823974
        },
        {
            "onset": 24.5,
            "x": 1493.79680678742
        },
        {
            "onset": 25.0,
            "x": 1512.8547367721994
        },
        {
            "onset": 25.5,
            "x": 1540.8589820972757
        },
        {
            "onset": 26.5,
            "x": 1567.8917522647034
        },
        {
            "onset": 27.0,
            "x": 1595.528520692618
        },
        {
            "onset": 27.5,
            "x": 1614.5864506773976
        },
        {
            "onset": 28.0,
            "x": 1633.644380662177
        },
        {
            "onset": 28.5,
            "x": 1661.3047108064156
        },
        {
            "onset": 29.0,
            "x": 1679.205060882519
        },
        {
            "onset": 29.5,
            "x": 1698.2629908672986
        },
        {
            "onset": 30.0,
            "x": 1733.6779245485313
        },
        {
            "onset": 30.5,
            "x": 1752.7358545333107
        },
        {
            "onset": 31.0,
            "x": 1771.4079245485314
        },
        {
            "onset": 31.5,
            "x": 1799.362603391758
        },
        {
            "onset": 32.0,
            "x": 1817.2629534678615
        },
        {
            "onset": 32.5,
            "x": 1836.320883452641
        },
        {
            "onset": 33.0,
            "x": 1864.3048538809971
        },
        {
            "onset": 33.5,
            "x": 1883.3627838657765
        },
        {
            "onset": 34.0,
            "x": 1902.034853880997
        },
        {
            "onset": 34.5,
            "x": 1929.9030864859058
        },
        {
            "onset": 35.0,
            "x": 1946.8521428024962
        },
        {
            "onset": 35.5,
            "x": 1964.9587790277628
        },
        {
            "onset": 36.0,
            "x": 1993.3776266033258
        },
        {
            "onset": 36.5,
            "x": 2012.4355565881053
        },
        {
            "onset": 37.0,
            "x": 2037.576424168014
        },
        {
            "onset": 37.5,
            "x": 2072.9351100236304
        },
        {
            "onset": 38.0,
            "x": 2091.786753859247
        },
        {
            "onset": 38.5,
            "x": 2111.7959776035386
        },
        {
            "onset": 39.0,
            "x": 2138.7957151551827
        },
        {
            "onset": 39.25,
            "x": 2154.1860043484858
        },
        {
            "onset": 39.5,
            "x": 2168.6777242876033
        },
        {
            "onset": 39.75,
            "x": 2183.16944422672
        },
        {
            "onset": 40.0,
            "x": 2197.6611641658374
        },
        {
            "onset": 40.5,
            "x": 2226.254381821849
        },
        {
            "onset": 41.0,
            "x": 2251.7811093713167
        },
        {
            "onset": 41.5,
            "x": 2270.8390393560962
        },
        {
            "onset": 42.0,
            "x": 2306.101832082778
        },
        {
            "onset": 42.25,
            "x": 2321.4921212760805
        },
        {
            "onset": 42.5,
            "x": 2335.983841215198
        },
        {
            "onset": 42.75,
            "x": 2350.475561154315
        },
        {
            "onset": 43.0,
            "x": 2364.9672810934326
        },
        {
            "onset": 43.5,
            "x": 2401.0723952486837
        },
        {
            "onset": 44.0,
            "x": 2420.130325233463
        },
        {
            "onset": 44.5,
            "x": 2445.65705278293
        },
        {
            "onset": 45.0,
            "x": 2473.5011902041097
        },
        {
            "onset": 45.25,
            "x": 2488.891479397413
        },
        {
            "onset": 45.5,
            "x": 2503.3831993365297
        },
        {
            "onset": 45.75,
            "x": 2517.874919275643
        },
        {
            "onset": 46.0,
            "x": 2532.366639214757
        },
        {
            "onset": 46.5,
            "x": 2561.160987551355
        },
        {
            "onset": 47.0,
            "x": 2579.7432706563777
        },
        {
            "onset": 47.5,
            "x": 2598.801200641157
        },
        {
            "onset": 48.0,
            "x": 2626.9622065663552
        },
        {
            "onset": 48.25,
            "x": 2642.352495759658
        },
        {
            "onset": 48.5,
            "x": 2656.844215698775
        },
        {
            "onset": 48.75,
            "x": 2671.3359356378924
        },
        {
            "onset": 49.0,
            "x": 2685.8276555770094
        },
        {
            "onset": 49.5,
            "x": 2721.9327697322606
        },
        {
            "onset": 50.0,
            "x": 2740.9906997170397
        },
        {
            "onset": 50.5,
            "x": 2766.5174272665067
        },
        {
            "onset": 51.0,
            "x": 2795.889046205411
        },
        {
            "onset": 51.5,
            "x": 2814.9469761901905
        },
        {
            "onset": 52.0,
            "x": 2834.0049061749696
        },
        {
            "onset": 52.5,
            "x": 2861.813228201496
        },
        {
            "onset": 53.0,
            "x": 2881.822451945784
        },
        {
            "onset": 53.5,
            "x": 2900.880381930563
        },
        {
            "onset": 54.0,
            "x": 2935.541189171271
        },
        {
            "onset": 54.5,
            "x": 2954.5991191560497
        },
        {
            "onset": 55.0,
            "x": 2973.6570491408297
        },
        {
            "onset": 55.5,
            "x": 3000.8837229829683
        },
        {
            "onset": 56.0,
            "x": 3019.5557929981896
        },
        {
            "onset": 56.5,
            "x": 3038.03493302863
        },
        {
            "onset": 57.0,
            "x": 3073.632661067337
        },
        {
            "onset": 57.5,
            "x": 3092.690591052116
        },
        {
            "onset": 58.0,
            "x": 3111.748521036895
        },
        {
            "onset": 58.5,
            "x": 3146.052214231065
        },
        {
            "onset": 59.0,
            "x": 3166.061437975358
        },
        {
            "onset": 59.5,
            "x": 3185.119367960137
        },
        {
            "onset": 60.0,
            "x": 3213.7429355835316
        },
        {
            "onset": 60.5,
            "x": 3232.8008655683107
        },
        {
            "onset": 61.0,
            "x": 3251.85879555309
        },
        {
            "onset": 61.5,
            "x": 3282.5246261684474
        },
        {
            "onset": 62.0,
            "x": 3307.6654937483563
        },
        {
            "onset": 62.5,
            "x": 3326.144633778797
        },
        {
            "onset": 63.0,
            "x": 3353.52001358962
        },
        {
            "onset": 63.25,
            "x": 3379.0467411390864
        },
        {
            "onset": 63.5,
            "x": 3393.5384610782044
        },
        {
            "onset": 63.75,
            "x": 3408.030181017321
        },
        {
            "onset": 64.0,
            "x": 3421.750181017321
        },
        {
            "onset": 64.25,
            "x": 3437.0136208955555
        },
        {
            "onset": 64.5,
            "x": 3460.279593498295
        },
        {
            "onset": 64.75,
            "x": 3474.771313437413
        },
        {
            "onset": 65.0,
            "x": 3488.6842434221917
        },
        {
            "onset": 65.25,
            "x": 3503.7547533156476
        },
        {
            "onset": 65.5,
            "x": 3517.860613285206
        },
        {
            "onset": 65.75,
            "x": 3543.7732008042312
        },
        {
            "onset": 66.0,
            "x": 3567.256611980578
        },
        {
            "onset": 66.25,
            "x": 3592.7833395300463
        },
        {
            "onset": 66.5,
            "x": 3607.2750594691634
        },
        {
            "onset": 66.75,
            "x": 3621.76677940828
        },
        {
            "onset": 67.0,
            "x": 3635.48677940828
        },
        {
            "onset": 67.25,
            "x": 3650.7502192865145
        },
        {
            "onset": 67.5,
            "x": 3674.217322569833
        },
        {
            "onset": 67.75,
            "x": 3688.7090425089505
        },
        {
            "onset": 68.0,
            "x": 3702.621972493729
        },
        {
            "onset": 68.25,
            "x": 3717.692482387184
        },
        {
            "onset": 68.5,
            "x": 3731.798342356744
        },
        {
            "onset": 68.75,
            "x": 3746.6759222654186
        },
        {
            "onset": 69.0,
            "x": 3780.1174138940332
        },
        {
            "onset": 69.5,
            "x": 3799.1753438788123
        },
        {
            "onset": 70.0,
            "x": 3818.2332738635923
        },
        {
            "onset": 70.5,
            "x": 3848.0198357248632
        },
        {
            "onset": 71.0,
            "x": 3866.023328875548
        },
        {
            "onset": 71.5,
            "x": 3891.5500564250233
        },
        {
            "onset": 72.0,
            "x": 3919.37166775357
        },
        {
            "onset": 72.25,
            "x": 3944.8983953030365
        },
        {
            "onset": 72.5,
            "x": 3959.390115242154
        },
        {
            "onset": 72.75,
            "x": 3973.881835181271
        },
        {
            "onset": 73.0,
            "x": 3987.6018351812713
        },
        {
            "onset": 73.25,
            "x": 4002.8652750595056
        },
        {
            "onset": 73.5,
            "x": 4026.1312476622456
        },
        {
            "onset": 73.75,
            "x": 4040.6229676013622
        },
        {
            "onset": 74.0,
            "x": 4054.5358975861413
        },
        {
            "onset": 74.25,
            "x": 4069.606407479597
        },
        {
            "onset": 74.5,
            "x": 4083.7122674491557
        },
        {
            "onset": 74.75,
            "x": 4109.624854968182
        },
        {
            "onset": 75.0,
            "x": 4133.10826614452
        },
        {
            "onset": 75.25,
            "x": 4158.634993693988
        },
        {
            "onset": 75.5,
            "x": 4173.126713633104
        },
        {
            "onset": 75.75,
            "x": 4187.618433572222
        },
        {
            "onset": 76.0,
            "x": 4201.338433572223
        },
        {
            "onset": 76.25,
            "x": 4216.601873450457
        },
        {
            "onset": 76.5,
            "x": 4240.068976733783
        },
        {
            "onset": 76.75,
            "x": 4254.560696672899
        },
        {
            "onset": 77.0,
            "x": 4268.473626657679
        },
        {
            "onset": 77.25,
            "x": 4283.544136551134
        },
        {
            "onset": 77.5,
            "x": 4297.649996520693
        },
        {
            "onset": 77.75,
            "x": 4312.527576429368
        },
        {
            "onset": 78.0,
            "x": 4345.969068057983
        },
        {
            "onset": 78.5,
            "x": 4365.026998042763
        },
        {
            "onset": 79.0,
            "x": 4384.084928027542
        },
        {
            "onset": 79.5,
            "x": 4413.871489888813
        },
        {
            "onset": 80.0,
            "x": 4431.874983039498
        },
        {
            "onset": 80.5,
            "x": 4457.401710588965
        },
        {
            "onset": 81.0,
            "x": 4485.424452598098
        },
        {
            "onset": 82.0,
            "x": 4513.704589584399
        },
        {
            "onset": 82.5,
            "x": 4543.427726788143
        },
        {
            "onset": 83.0,
            "x": 4561.032353880989
        },
        {
            "onset": 83.5,
            "x": 4581.992871384795
        },
        {
            "onset": 84.0,
            "x": 4610.082444770313
        },
        {
            "onset": 84.5,
            "x": 4627.687071863158
        },
        {
            "onset": 85.0,
            "x": 4648.647589366964
        },
        {
            "onset": 85.5,
            "x": 4676.342650358485
        },
        {
            "onset": 86.0,
            "x": 4702.109876385883
        },
        {
            "onset": 86.5,
            "x": 4728.022463904909
        },
        {
            "onset": 87.0,
            "x": 4757.59158719258
        },
        {
            "onset": 88.0,
            "x": 4785.565193411325
        },
        {
            "onset": 88.5,
            "x": 4815.288330615062
        },
        {
            "onset": 89.0,
            "x": 4832.892957707907
        },
        {
            "onset": 89.5,
            "x": 4853.853475211713
        },
        {
            "onset": 90.0,
            "x": 4881.94304859723
        },
        {
            "onset": 90.5,
            "x": 4899.547675690075
        },
        {
            "onset": 91.0,
            "x": 4920.508193193882
        },
        {
            "onset": 91.5,
            "x": 4948.203254185403
        },
        {
            "onset": 92.0,
            "x": 4973.970480212801
        },
        {
            "onset": 92.5,
            "x": 4993.207984017976
        },
        {
            "onset": 93.0,
            "x": 5023.987434333265
        },
        {
            "onset": 94.0,
            "x": 5051.946268427633
        },
        {
            "onset": 94.5,
            "x": 5081.59632496166
        },
        {
            "onset": 95.0,
            "x": 5107.123052511127
        },
        {
            "onset": 95.5,
            "x": 5126.1809824959055
        },
        {
            "onset": 96.0,
            "x": 5161.318042835107
        },
        {
            "onset": 97.5,
            "x": 5204.672473968029
        },
        {
            "onset": 98.0,
            "x": 5223.730403952808
        },
        {
            "onset": 98.5,
            "x": 5242.788333937588
        },
        {
            "onset": 99.0,
            "x": 5279.063928197207
        },
        {
            "onset": 100.5,
            "x": 5322.618208047237
        },
        {
            "onset": 101.0,
            "x": 5342.94452971137
        },
        {
            "onset": 101.5,
            "x": 5362.002459696148
        },
        {
            "onset": 102.0,
            "x": 5396.353970169437
        },
        {
            "onset": 102.5,
            "x": 5415.411900154217
        },
        {
            "onset": 103.0,
            "x": 5439.226329377961
        },
        {
            "onset": 103.5,
            "x": 5476.405802741735
        },
        {
            "onset": 105.0,
            "x": 5518.905806118623
        },
        {
            "onset": 105.5,
            "x": 5537.782061826385
        },
        {
            "onset": 106.0,
            "x": 5554.524831993814
        },
        {
            "onset": 106.5,
            "x": 5571.077328188639
        },
        {
            "onset": 106.75,
            "x": 5587.313446910099
        },
        {
            "onset": 107.0,
            "x": 5602.201711750282
        },
        {
            "onset": 107.5,
            "x": 5622.23554736672
        },
        {
            "onset": 108.0,
            "x": 5651.218880700054
        },
        {
            "onset": 108.25,
            "x": 5666.5564301673285
        },
        {
            "onset": 108.5,
            "x": 5681.444695007511
        },
        {
            "onset": 109.0,
            "x": 5701.47853062395
        },
        {
            "onset": 109.5,
            "x": 5730.7994999651055
        },
        {
            "onset": 109.75,
            "x": 5746.137049432382
        },
        {
            "onset": 110.0,
            "x": 5761.025314272564
        },
        {
            "onset": 110.5,
            "x": 5781.0591498890035
        },
        {
            "onset": 111.0,
            "x": 5810.82940385726
        },
        {
            "onset": 111.25,
            "x": 5825.717668697443
        },
        {
            "onset": 111.5,
            "x": 5840.605933537626
        },
        {
            "onset": 112.0,
            "x": 5860.639769154063
        },
        {
            "onset": 112.5,
            "x": 5897.720788940974
        },
        {
            "onset": 112.75,
            "x": 5912.609053781158
        },
        {
            "onset": 113.0,
            "x": 5927.497318621339
        },
        {
            "onset": 113.5,
            "x": 5947.531154237778
        },
        {
            "onset": 114.0,
            "x": 5984.612174024687
        },
        {
            "onset": 114.25,
            "x": 5999.500438864871
        },
        {
            "onset": 114.5,
            "x": 6014.388703705053
        },
        {
            "onset": 115.0,
            "x": 6034.422539321492
        },
        {
            "onset": 115.5,
            "x": 6063.743508662647
        },
        {
            "onset": 115.75,
            "x": 6079.081058129924
        },
        {
            "onset": 116.0,
            "x": 6093.969322970107
        },
        {
            "onset": 116.5,
            "x": 6114.003158586545
        },
        {
            "onset": 117.0,
            "x": 6143.773412554802
        },
        {
            "onset": 117.25,
            "x": 6158.661677394985
        },
        {
            "onset": 117.5,
            "x": 6173.549942235168
        },
        {
            "onset": 118.0,
            "x": 6193.583777851606
        },
        {
            "onset": 118.5,
            "x": 6230.664797638516
        },
        {
            "onset": 118.75,
            "x": 6245.553062478699
        },
        {
            "onset": 119.0,
            "x": 6260.441327318881
        },
        {
            "onset": 119.5,
            "x": 6280.4751629353195
        },
        {
            "onset": 120.0,
            "x": 6317.55618272223
        },
        {
            "onset": 120.25,
            "x": 6332.444447562413
        },
        {
            "onset": 120.5,
            "x": 6347.3327124025955
        },
        {
            "onset": 121.0,
            "x": 6367.366548019034
        },
        {
            "onset": 121.5,
            "x": 6396.687517360189
        },
        {
            "onset": 121.75,
            "x": 6412.025066827466
        },
        {
            "onset": 122.0,
            "x": 6426.913331667648
        },
        {
            "onset": 122.5,
            "x": 6446.947167284087
        },
        {
            "onset": 123.0,
            "x": 6476.516290571759
        },
        {
            "onset": 123.25,
            "x": 6491.404555411941
        },
        {
            "onset": 123.5,
            "x": 6506.292820252123
        },
        {
            "onset": 124.0,
            "x": 6526.326655868563
        },
        {
            "onset": 124.5,
            "x": 6563.407675655472
        },
        {
            "onset": 124.75,
            "x": 6578.295940495655
        },
        {
            "onset": 125.0,
            "x": 6593.184205335838
        },
        {
            "onset": 125.5,
            "x": 6613.218040952276
        },
        {
            "onset": 126.0,
            "x": 6650.299060739186
        },
        {
            "onset": 126.25,
            "x": 6665.187325579369
        },
        {
            "onset": 126.5,
            "x": 6680.075590419552
        },
        {
            "onset": 127.0,
            "x": 6700.10942603599
        },
        {
            "onset": 127.5,
            "x": 6729.430395377147
        },
        {
            "onset": 127.75,
            "x": 6744.767944844422
        },
        {
            "onset": 128.0,
            "x": 6759.656209684604
        },
        {
            "onset": 128.5,
            "x": 6779.690045301044
        },
        {
            "onset": 129.0,
            "x": 6808.890817207984
        },
        {
            "onset": 129.25,
            "x": 6823.831821774194
        },
        {
            "onset": 129.5,
            "x": 6838.323541713311
        },
        {
            "onset": 130.0,
            "x": 6857.3814716980905
        },
        {
            "onset": 130.5,
            "x": 6893.486585853341
        },
        {
            "onset": 130.75,
            "x": 6915.938731972064
        },
        {
            "onset": 131.0,
            "x": 6930.430451911179
        },
        {
            "onset": 131.5,
            "x": 6949.488381895959
        },
        {
            "onset": 132.0,
            "x": 6977.317440749331
        },
        {
            "onset": 132.25,
            "x": 6999.769586868052
        },
        {
            "onset": 132.5,
            "x": 7014.26130680717
        },
        {
            "onset": 133.0,
            "x": 7039.788034356637
        },
        {
            "onset": 133.5,
            "x": 7067.644173662284
        },
        {
            "onset": 133.75,
            "x": 7082.135893601401
        },
        {
            "onset": 134.0,
            "x": 7096.627613540518
        },
        {
            "onset": 134.5,
            "x": 7115.299683555738
        },
        {
            "onset": 135.0,
            "x": 7143.1613447864465
        },
        {
            "onset": 135.25,
            "x": 7157.653064725564
        },
        {
            "onset": 135.5,
            "x": 7172.144784664681
        },
        {
            "onset": 136.0,
            "x": 7190.568518809779
        },
        {
            "onset": 136.5,
            "x": 7218.648401664749
        },
        {
            "onset": 136.75,
            "x": 7233.140121603866
        },
        {
            "onset": 137.0,
            "x": 7247.631841542984
        },
        {
            "onset": 137.5,
            "x": 7266.689771527763
        },
        {
            "onset": 138.0,
            "x": 7294.826868360413
        },
        {
            "onset": 138.25,
            "x": 7309.3185882995285
        },
        {
            "onset": 138.5,
            "x": 7323.810308238645
        },
        {
            "onset": 139.0,
            "x": 7342.868238223425
        },
        {
            "onset": 139.5,
            "x": 7370.814976934742
        },
        {
            "onset": 139.75,
            "x": 7385.306696873859
        },
        {
            "onset": 140.0,
            "x": 7399.798416812977
        },
        {
            "onset": 140.5,
            "x": 7418.470486828196
        },
        {
            "onset": 141.0,
            "x": 7446.348455951919
        },
        {
            "onset": 141.25,
            "x": 7460.840175891035
        },
        {
            "onset": 141.5,
            "x": 7475.3318958301525
        },
        {
            "onset": 142.0,
            "x": 7493.755629975261
        },
        {
            "onset": 142.5,
            "x": 7521.380857035489
        },
        {
            "onset": 142.75,
            "x": 7535.872576974605
        },
        {
            "onset": 143.0,
            "x": 7550.364296913721
        },
        {
            "onset": 143.5,
            "x": 7568.153835219148
        },
        {
            "onset": 144.0,
            "x": 7596.948183555746
        },
        {
            "onset": 144.25,
            "x": 7611.439903494865
        },
        {
            "onset": 144.5,
            "x": 7625.931623433982
        },
        {
            "onset": 145.0,
            "x": 7643.721161739406
        },
        {
            "onset": 145.5,
            "x": 7672.2781396331575
        },
        {
            "onset": 145.75,
            "x": 7687.166404473342
        },
        {
            "onset": 146.0,
            "x": 7702.054669313523
        },
        {
            "onset": 146.5,
            "x": 7719.9550193896275
        },
        {
            "onset": 147.0,
            "x": 7748.170577771881
        },
        {
            "onset": 147.25,
            "x": 7763.058842612063
        },
        {
            "onset": 147.5,
            "x": 7777.947107452246
        },
        {
            "onset": 148.0,
            "x": 7797.005037437025
        },
        {
            "onset": 148.5,
            "x": 7825.799385773593
        },
        {
            "onset": 148.75,
            "x": 7840.687650613774
        },
        {
            "onset": 149.0,
            "x": 7854.418335545282
        },
        {
            "onset": 149.5,
            "x": 7871.739895667046
        },
        {
            "onset": 150.0,
            "x": 7907.26621986796
        },
        {
            "onset": 150.25,
            "x": 7922.154484708142
        },
        {
            "onset": 150.5,
            "x": 7937.042749548325
        },
        {
            "onset": 151.0,
            "x": 7956.100679533106
        },
        {
            "onset": 151.5,
            "x": 7984.89502786971
        },
        {
            "onset": 151.75,
            "x": 7999.783292709894
        },
        {
            "onset": 152.0,
            "x": 8013.513977641401
        },
        {
            "onset": 152.5,
            "x": 8030.835537763168
        },
        {
            "onset": 153.0,
            "x": 8059.051096145435
        },
        {
            "onset": 153.25,
            "x": 8073.939360985618
        },
        {
            "onset": 153.5,
            "x": 8088.8276258258
        },
        {
            "onset": 154.0,
            "x": 8107.885555810579
        },
        {
            "onset": 154.5,
            "x": 8142.620883055632
        },
        {
            "onset": 154.75,
            "x": 8157.509147895813
        },
        {
            "onset": 155.0,
            "x": 8171.23983282732
        },
        {
            "onset": 155.5,
            "x": 8188.561392949086
        },
        {
            "onset": 156.0,
            "x": 8224.08771715
        },
        {
            "onset": 156.25,
            "x": 8238.975981990185
        },
        {
            "onset": 156.5,
            "x": 8253.864246830366
        },
        {
            "onset": 157.0,
            "x": 8272.922176815146
        },
        {
            "onset": 157.5,
            "x": 8301.716525151749
        },
        {
            "onset": 158.0,
            "x": 8320.592780859512
        },
        {
            "onset": 158.5,
            "x": 8337.335551026943
        },
        {
            "onset": 159.0,
            "x": 8364.972319454871
        },
        {
            "onset": 159.5,
            "x": 8383.848575162632
        },
        {
            "onset": 160.0,
            "x": 8400.591345330062
        },
        {
            "onset": 160.5,
            "x": 8428.228113757992
        },
        {
            "onset": 161.0,
            "x": 8447.104369465755
        },
        {
            "onset": 161.5,
            "x": 8463.847139633182
        },
        {
            "onset": 162.0,
            "x": 8496.305267487063
        },
        {
            "onset": 163.5,
            "x": 8537.454585388812
        },
        {
            "onset": 164.0,
            "x": 8554.969075495359
        },
        {
            "onset": 164.5,
            "x": 8574.027005480137
        },
        {
            "onset": 165.0,
            "x": 8600.138574227016
        },
        {
            "onset": 165.5,
            "x": 8619.058980112328
        },
        {
            "onset": 166.0,
            "x": 8636.214322578082
        },
        {
            "onset": 166.5,
            "x": 8662.487764087062
        },
        {
            "onset": 167.0,
            "x": 8680.002254193609
        },
        {
            "onset": 167.5,
            "x": 8699.060184178388
        },
        {
            "onset": 168.0,
            "x": 8725.45442307093
        },
        {
            "onset": 168.5,
            "x": 8743.161843162254
        },
        {
            "onset": 169.0,
            "x": 8761.640983192694
        },
        {
            "onset": 169.5,
            "x": 8787.911753468874
        },
        {
            "onset": 170.0,
            "x": 8805.426243575419
        },
        {
            "onset": 170.5,
            "x": 8824.484173560199
        },
        {
            "onset": 171.0,
            "x": 8851.89393075373
        },
        {
            "onset": 171.5,
            "x": 8869.545944959742
        },
        {
            "onset": 172.0,
            "x": 8889.872266623895
        },
        {
            "onset": 172.5,
            "x": 8916.576284725648
        },
        {
            "onset": 173.0,
            "x": 8934.090774832192
        },
        {
            "onset": 173.5,
            "x": 8953.148704816971
        },
        {
            "onset": 174.0,
            "x": 8980.227474404566
        },
        {
            "onset": 174.5,
            "x": 8997.934894495891
        },
        {
            "onset": 175.0,
            "x": 9015.779838686683
        },
        {
            "onset": 175.5,
            "x": 9042.935841350305
        },
        {
            "onset": 176.0,
            "x": 9060.45033145685
        },
        {
            "onset": 176.5,
            "x": 9079.50826144163
        },
        {
            "onset": 177.0,
            "x": 9106.849769305632
        },
        {
            "onset": 177.5,
            "x": 9124.364259412177
        },
        {
            "onset": 178.0,
            "x": 9143.422189396957
        },
        {
            "onset": 178.5,
            "x": 9170.730689070777
        },
        {
            "onset": 178.75,
            "x": 9185.222409009893
        },
        {
            "onset": 179.0,
            "x": 9200.110673850075
        },
        {
            "onset": 179.25,
            "x": 9213.841358781583
        },
        {
            "onset": 179.5,
            "x": 9227.561358781584
        },
        {
            "onset": 179.75,
            "x": 9242.824798659818
        },
        {
            "onset": 180.0,
            "x": 9265.192202008371
        },
        {
            "onset": 180.25,
            "x": 9280.582491201674
        },
        {
            "onset": 180.5,
            "x": 9295.074211140793
        },
        {
            "onset": 180.75,
            "x": 9309.565931079907
        },
        {
            "onset": 181.0,
            "x": 9324.057651019026
        },
        {
            "onset": 181.25,
            "x": 9338.549370958144
        },
        {
            "onset": 181.5,
            "x": 9360.59496456545
        },
        {
            "onset": 181.75,
            "x": 9375.086684504568
        },
        {
            "onset": 182.0,
            "x": 9389.578404443684
        },
        {
            "onset": 182.25,
            "x": 9403.30908937519
        },
        {
            "onset": 182.5,
            "x": 9417.02908937519
        },
        {
            "onset": 182.75,
            "x": 9432.292529253426
        },
        {
            "onset": 183.0,
            "x": 9456.083549040333
        },
        {
            "onset": 183.25,
            "x": 9471.473838233638
        },
        {
            "onset": 183.5,
            "x": 9485.965558172757
        },
        {
            "onset": 183.75,
            "x": 9500.457278111873
        },
        {
            "onset": 184.0,
            "x": 9515.345542952055
        },
        {
            "onset": 184.25,
            "x": 9530.233807792236
        },
        {
            "onset": 184.5,
            "x": 9556.364533602207
        },
        {
            "onset": 185.0,
            "x": 9577.325051106012
        },
        {
            "onset": 185.25,
            "x": 9591.81677104513
        },
        {
            "onset": 185.5,
            "x": 9606.308490984247
        },
        {
            "onset": 185.75,
            "x": 9620.800210923364
        },
        {
            "onset": 186.0,
            "x": 9646.179566217961
        },
        {
            "onset": 186.5,
            "x": 9665.237496202739
        },
        {
            "onset": 186.75,
            "x": 9679.729216141857
        },
        {
            "onset": 187.0,
            "x": 9694.220936080976
        },
        {
            "onset": 187.25,
            "x": 9708.712656020092
        },
        {
            "onset": 187.5,
            "x": 9732.510746909436
        },
        {
            "onset": 188.0,
            "x": 9751.09303001446
        },
        {
            "onset": 188.5,
            "x": 9770.15095999924
        },
        {
            "onset": 189.0,
            "x": 9798.155205324278
        },
        {
            "onset": 190.0,
            "x": 9825.187975491706
        },
        {
            "onset": 190.5,
            "x": 9852.824743919637
        },
        {
            "onset": 191.0,
            "x": 9871.882673904414
        },
        {
            "onset": 191.5,
            "x": 9890.940603889194
        },
        {
            "onset": 192.0,
            "x": 9919.078493937746
        },
        {
            "onset": 192.5,
            "x": 9936.978844013853
        },
        {
            "onset": 193.0,
            "x": 9956.03677399863
        },
        {
            "onset": 193.5,
            "x": 9983.5839559223
        },
        {
            "onset": 194.0,
            "x": 10002.641885907078
        },
        {
            "onset": 194.5,
            "x": 10021.313955922298
        },
        {
            "onset": 195.0,
            "x": 10049.361575350382
        },
        {
            "onset": 195.5,
            "x": 10067.261925426485
        },
        {
            "onset": 196.0,
            "x": 10086.319855411264
        },
        {
            "onset": 196.5,
            "x": 10113.957636740564
        },
        {
            "onset": 197.0,
            "x": 10133.015566725342
        },
        {
            "onset": 197.5,
            "x": 10151.687636740564
        },
        {
            "onset": 198.0,
            "x": 10179.735256168722
        },
        {
            "onset": 198.5,
            "x": 10196.684312485313
        },
        {
            "onset": 199.0,
            "x": 10214.790948710579
        },
        {
            "onset": 199.5,
            "x": 10242.519329445511
        },
        {
            "onset": 200.0,
            "x": 10261.577259430289
        },
        {
            "onset": 200.5,
            "x": 10280.24932944551
        },
        {
            "onset": 201.0,
            "x": 10307.102619291098
        },
        {
            "onset": 201.5,
            "x": 10324.051675607687
        },
        {
            "onset": 202.0,
            "x": 10343.109605592468
        },
        {
            "onset": 202.5,
            "x": 10369.884451211112
        },
        {
            "onset": 202.75,
            "x": 10385.67128530548
        },
        {
            "onset": 203.0,
            "x": 10400.559550145665
        },
        {
            "onset": 203.25,
            "x": 10415.447814985846
        },
        {
            "onset": 203.5,
            "x": 10430.33607982603
        },
        {
            "onset": 204.0,
            "x": 10459.445107875572
        },
        {
            "onset": 204.5,
            "x": 10478.978684740106
        },
        {
            "onset": 205.0,
            "x": 10498.036614724886
        },
        {
            "onset": 205.5,
            "x": 10524.481291937365
        },
        {
            "onset": 205.75,
            "x": 10539.87158113067
        },
        {
            "onset": 206.0,
            "x": 10554.363301069787
        },
        {
            "onset": 206.25,
            "x": 10568.855021008903
        },
        {
            "onset": 206.5,
            "x": 10583.346740948022
        },
        {
            "onset": 207.0,
            "x": 10612.455768997566
        },
        {
            "onset": 207.5,
            "x": 10631.513698982344
        },
        {
            "onset": 208.0,
            "x": 10650.571628967124
        },
        {
            "onset": 208.5,
            "x": 10676.989349939116
        },
        {
            "onset": 208.75,
            "x": 10692.379639132421
        },
        {
            "onset": 209.0,
            "x": 10706.87135907154
        },
        {
            "onset": 209.25,
            "x": 10721.363079010654
        },
        {
            "onset": 209.5,
            "x": 10736.25134385084
        },
        {
            "onset": 210.0,
            "x": 10765.045692187368
        },
        {
            "onset": 210.5,
            "x": 10784.103622172144
        },
        {
            "onset": 211.0,
            "x": 10803.161552156926
        },
        {
            "onset": 211.5,
            "x": 10829.848052754947
        },
        {
            "onset": 211.75,
            "x": 10845.634886849315
        },
        {
            "onset": 212.0,
            "x": 10860.5231516895
        },
        {
            "onset": 212.25,
            "x": 10875.411416529681
        },
        {
            "onset": 212.5,
            "x": 10890.299681369865
        },
        {
            "onset": 213.0,
            "x": 10918.756393698632
        },
        {
            "onset": 213.5,
            "x": 10937.814323683411
        },
        {
            "onset": 214.0,
            "x": 10956.872253668189
        },
        {
            "onset": 214.5,
            "x": 10984.944448547487
        },
        {
            "onset": 215.0,
            "x": 11004.00237853227
        },
        {
            "onset": 215.5,
            "x": 11023.060308517048
        },
        {
            "onset": 216.0,
            "x": 11050.384223498555
        },
        {
            "onset": 216.5,
            "x": 11068.49085972382
        },
        {
            "onset": 217.0,
            "x": 11087.548789708599
        },
        {
            "onset": 217.5,
            "x": 11123.603320584854
        },
        {
            "onset": 218.0,
            "x": 11142.661250569636
        },
        {
            "onset": 218.5,
            "x": 11161.719180554415
        },
        {
            "onset": 219.0,
            "x": 11191.798533239802
        },
        {
            "onset": 219.5,
            "x": 11210.470603255024
        },
        {
            "onset": 220.0,
            "x": 11228.949743285464
        },
        {
            "onset": 220.5,
            "x": 11258.040097819103
        },
        {
            "onset": 221.0,
            "x": 11277.098027803882
        },
        {
            "onset": 221.5,
            "x": 11296.15595778866
        },
        {
            "onset": 222.0,
            "x": 11323.328271987368
        },
        {
            "onset": 222.5,
            "x": 11343.337495731661
        },
        {
            "onset": 223.0,
            "x": 11362.395425716439
        },
        {
            "onset": 223.5,
            "x": 11398.364640763168
        },
        {
            "onset": 224.0,
            "x": 11417.422570747945
        },
        {
            "onset": 224.5,
            "x": 11436.480500732725
        },
        {
            "onset": 225.0,
            "x": 11463.870253505098
        },
        {
            "onset": 225.5,
            "x": 11482.54232352032
        },
        {
            "onset": 226.0,
            "x": 11501.021463550762
        },
        {
            "onset": 226.5,
            "x": 11528.929190230443
        },
        {
            "onset": 226.75,
            "x": 11543.42091016956
        },
        {
            "onset": 227.0,
            "x": 11557.912630108676
        },
        {
            "onset": 227.25,
            "x": 11572.404350047795
        },
        {
            "onset": 227.5,
            "x": 11586.124350047792
        },
        {
            "onset": 227.75,
            "x": 11601.387789926028
        },
        {
            "onset": 228.0,
            "x": 11626.129025629452
        },
        {
            "onset": 228.25,
            "x": 11640.62074556857
        },
        {
            "onset": 228.5,
            "x": 11655.112465507687
        },
        {
            "onset": 228.75,
            "x": 11669.604185446804
        },
        {
            "onset": 229.0,
            "x": 11683.710045416363
        },
        {
            "onset": 229.25,
            "x": 11706.505433544216
        },
        {
            "onset": 229.5,
            "x": 11732.57848051096
        },
        {
            "onset": 229.75,
            "x": 11747.070200450076
        },
        {
            "onset": 230.0,
            "x": 11761.561920389195
        },
        {
            "onset": 230.25,
            "x": 11776.053640328311
        },
        {
            "onset": 230.5,
            "x": 11789.773640328312
        },
        {
            "onset": 230.75,
            "x": 11805.037080206546
        },
        {
            "onset": 231.0,
            "x": 11828.085614235693
        },
        {
            "onset": 231.25,
            "x": 11842.57733417481
        },
        {
            "onset": 231.5,
            "x": 11857.069054113928
        },
        {
            "onset": 231.75,
            "x": 11871.560774053043
        },
        {
            "onset": 232.0,
            "x": 11885.666634022602
        },
        {
            "onset": 232.25,
            "x": 11900.54421393128
        },
        {
            "onset": 232.5,
            "x": 11923.666734696651
        },
        {
            "onset": 233.0,
            "x": 11942.724664681431
        },
        {
            "onset": 233.5,
            "x": 11961.782594666212
        },
        {
            "onset": 234.0,
            "x": 11990.111711865602
        },
        {
            "onset": 234.5,
            "x": 12008.11520501629
        },
        {
            "onset": 235.0,
            "x": 12027.173135001065
        },
        {
            "onset": 235.5,
            "x": 12055.384399134551
        },
        {
            "onset": 235.75,
            "x": 12069.876119073668
        },
        {
            "onset": 236.0,
            "x": 12084.367839012786
        },
        {
            "onset": 236.25,
            "x": 12098.859558951903
        },
        {
            "onset": 236.5,
            "x": 12112.579558951906
        },
        {
            "onset": 236.75,
            "x": 12127.842998830138
        },
        {
            "onset": 237.0,
            "x": 12152.584234533562
        },
        {
            "onset": 237.25,
            "x": 12167.075954472679
        },
        {
            "onset": 237.5,
            "x": 12181.567674411795
        },
        {
            "onset": 237.75,
            "x": 12196.059394350914
        },
        {
            "onset": 238.0,
            "x": 12210.165254320473
        },
        {
            "onset": 238.25,
            "x": 12232.960642448326
        },
        {
            "onset": 238.5,
            "x": 12259.03368941507
        },
        {
            "onset": 238.75,
            "x": 12273.525409354188
        },
        {
            "onset": 239.0,
            "x": 12288.017129293301
        },
        {
            "onset": 239.25,
            "x": 12302.508849232421
        },
        {
            "onset": 239.5,
            "x": 12316.228849232419
        },
        {
            "onset": 239.75,
            "x": 12331.492289110654
        },
        {
            "onset": 240.0,
            "x": 12354.540823139803
        },
        {
            "onset": 240.25,
            "x": 12369.03254307892
        },
        {
            "onset": 240.5,
            "x": 12383.524263018036
        },
        {
            "onset": 240.75,
            "x": 12398.015982957157
        },
        {
            "onset": 241.0,
            "x": 12412.121842926716
        },
        {
            "onset": 241.25,
            "x": 12426.99942283539
        },
        {
            "onset": 241.5,
            "x": 12450.121943600761
        },
        {
            "onset": 242.0,
            "x": 12469.179873585541
        },
        {
            "onset": 242.5,
            "x": 12488.237803570319
        },
        {
            "onset": 243.0,
            "x": 12516.566920769712
        },
        {
            "onset": 243.5,
            "x": 12534.570413920395
        },
        {
            "onset": 244.0,
            "x": 12553.628343905175
        },
        {
            "onset": 244.5,
            "x": 12583.280744807536
        },
        {
            "onset": 245.5,
            "x": 12612.240377336302
        },
        {
            "onset": 246.0,
            "x": 12639.91096224612
        },
        {
            "onset": 246.5,
            "x": 12657.515589338967
        },
        {
            "onset": 247.0,
            "x": 12678.47610684277
        },
        {
            "onset": 247.5,
            "x": 12705.188716649238
        },
        {
            "onset": 248.0,
            "x": 12722.793343742085
        },
        {
            "onset": 248.5,
            "x": 12743.75386124589
        },
        {
            "onset": 249.0,
            "x": 12770.747334283487
        },
        {
            "onset": 249.5,
            "x": 12787.696390600076
        },
        {
            "onset": 250.0,
            "x": 12806.933894405252
        },
        {
            "onset": 250.5,
            "x": 12835.107936588356
        },
        {
            "onset": 251.5,
            "x": 12862.912426694902
        },
        {
            "onset": 252.0,
            "x": 12890.583011604644
        },
        {
            "onset": 252.5,
            "x": 12908.18763869749
        },
        {
            "onset": 253.0,
            "x": 12929.148156201296
        },
        {
            "onset": 253.5,
            "x": 12955.860766007763
        },
        {
            "onset": 254.0,
            "x": 12973.465393100612
        },
        {
            "onset": 254.5,
            "x": 12994.425910604416
        },
        {
            "onset": 255.0,
            "x": 13021.435691535084
        },
        {
            "onset": 255.5,
            "x": 13038.384747851676
        },
        {
            "onset": 256.0,
            "x": 13056.670957897337
        },
        {
            "onset": 256.5,
            "x": 13085.153791665525
        },
        {
            "onset": 257.5,
            "x": 13113.328291013242
        },
        {
            "onset": 258.0,
            "x": 13143.3322914481
        },
        {
            "onset": 258.5,
            "x": 13162.390221432877
        },
        {
            "onset": 259.0,
            "x": 13181.448151417657
        },
        {
            "onset": 259.5,
            "x": 13217.800902559211
        },
        {
            "onset": 261.0,
            "x": 13261.129890497945
        },
        {
            "onset": 261.5,
            "x": 13280.187820482724
        },
        {
            "onset": 262.0,
            "x": 13299.245750467504
        },
        {
            "onset": 262.5,
            "x": 13334.72874731469
        },
        {
            "onset": 264.0,
            "x": 13377.824140341478
        },
        {
            "onset": 264.5,
            "x": 13398.150462005631
        },
        {
            "onset": 265.0,
            "x": 13417.20839199041
        },
        {
            "onset": 265.5,
            "x": 13446.356783597263
        },
        {
            "onset": 266.0,
            "x": 13465.41471358204
        },
        {
            "onset": 266.5,
            "x": 13482.570056047793
        },
        {
            "onset": 267.0,
            "x": 13518.509523323288
        },
        {
            "onset": 268.5,
            "x": 13561.973732125267
        },
        {
            "onset": 269.0,
            "x": 13580.849987833031
        },
        {
            "onset": 269.5,
            "x": 13597.592758000459
        }
    ],
    "staffs": [
        {
            "bottom": 102.9,
            "notespos": [],
            "top": 0
        },
        {
            "bottom": 210.9,
            "notespos": [],
            "top": 108
        },
        {
            "bottom": 318.9,
            "notespos": [],
            "top": 216
        },
        {
            "bottom": 426.9,
            "notespos": [],
            "top": 324
        }
    ]
}