{
    "notes": [
        {
            "time": 0,
            "x": 201
        },
        {
            "time": 100,
            "x": 2700
        }
    ],
    "staffs": [
        {
            "bottom": 50,
            "top": 0
        },
        {
            "bottom": 110,
            "top": 60
        },
        {
            "bottom": 170,
            "top": 120
        }
    ],
    "synchro": [
        {
            "onset": 0,
            "time": 0
        },
        {
            "onset": 20,
            "time": 50
        },
        {
            "onset": 80,
            "time": 80
        },        
 
        {
            "onset": 100,
            "time": 100
        }
    ]
}
